
    [
        {
            "cedula": "1351528516",
            "nombre": "Mateo Vera",
            "direccion": "San agustin",
            "telefono": "0981722783",
            "email": "mateo_2@gmail.com"

        },
        {
            "cedula": "1332828107",
            "nombre": "Enrique Zambrano",
            "direccion": "Jocay J-13",
            "telefono": "0988572721",
            "email": "enriquez@gmail.com"

        },
        {
            "cedula": "1351728000",
            "nombre": "Noel Pérez",
            "direccion": "San agustin",
            "telefono": "0991752112",
            "email": "noel_perez@gmail.com"

        },
        {
            "cedula": "1314374019",
            "nombre": "Julia Pico",
            "direccion": "Ave 200 Calle 2",
            "telefono": "0986684701",
            "email": "julia_pico@gmail.com"

        },
        {
            "cedula": "1328228710",
            "nombre": "Lucas Delgado",
            "direccion": "Vía Interbarrial",
            "telefono": "0982774900",
            "email": "lucal_delgado@gmail.com"

        },
        {
        {
            "cedula": "1350508018",
            "nombre": "Alba Parraga",
            "direccion": "Calle 300 Ave 120",
            "telefono": "0901325700",
            "email": "albaparraga@gmail.com"

        },
        {
            "cedula": "1355478500",
            "nombre": "Sofía Macías",
            "direccion": "Calle 20 Ave 7",
            "telefono": "0980622611",
            "email": "sofiam@gmail.com"

        },
        {
            "cedula": "1351528516",
            "nombre": "Daniel Rodas",
            "direccion": "Calle 200 Ave 12",
            "telefono": "0988021580",
            "email": "daniel_rodas@gmail.com"

        },
        {
            "cedula": "1301027506",
            "nombre": "Pablo Gilces",
            "direccion": "En las 4 esquinas",
            "telefono": "0931402022",
            "email": "pablo@gmail.com"

        },
        {
            "cedula": "1301027432",
            "nombre": "Hugo Mera",
            "direccion": "San lorenzo",
            "telefono": "0980702241",
            "email": "hugo_mera@gmail.com"

        },
    ]
